{
  "stats": {
    "suites": 3,
    "tests": 4,
    "passes": 4,
    "pending": 0,
    "failures": 0,
    "start": "2020-06-26T21:01:51.155Z",
    "end": "2020-06-26T21:01:55.506Z",
    "duration": 4351,
    "testsRegistered": 4,
    "passPercent": 100,
    "pendingPercent": 0,
    "other": 0,
    "hasOther": false,
    "skipped": 0,
    "hasSkipped": false
  },
  "results": [
    {
      "uuid": "948cc8e2-60dd-4a83-bb3d-e46ca603c7cc",
      "title": "",
      "fullFile": "cypress/integration/project-spec.spec.ts",
      "file": "cypress/integration/project-spec.spec.ts",
      "beforeHooks": [],
      "afterHooks": [],
      "tests": [],
      "suites": [
        {
          "uuid": "ab3c3654-94a6-4931-9a46-dbd3e8470c11",
          "title": "Core website with standard marketing/sales pages",
          "fullFile": "",
          "file": "",
          "beforeHooks": [],
          "afterHooks": [],
          "tests": [],
          "suites": [
            {
              "uuid": "6c571719-4e37-4804-90c7-0aa59fa88be8",
              "title": "Page Meta",
              "fullFile": "",
              "file": "",
              "beforeHooks": [],
              "afterHooks": [],
              "tests": [
                {
                  "title": "has site title in window title",
                  "fullTitle": "Core website with standard marketing/sales pages Page Meta has site title in window title",
                  "timedOut": null,
                  "duration": 1548,
                  "state": "passed",
                  "speed": "slow",
                  "pass": true,
                  "fail": false,
                  "pending": false,
                  "context": null,
                  "code": "cy.get('head title')\n    .should('contain.text', 'Kowabunga Comics');",
                  "err": {},
                  "uuid": "ab41c619-2cc2-4e5b-b175-c937bb6b4d89",
                  "parentUUID": "6c571719-4e37-4804-90c7-0aa59fa88be8",
                  "isHook": false,
                  "skipped": false
                }
              ],
              "suites": [],
              "passes": [
                "ab41c619-2cc2-4e5b-b175-c937bb6b4d89"
              ],
              "failures": [],
              "pending": [],
              "skipped": [],
              "duration": 1548,
              "root": false,
              "rootEmpty": false,
              "_timeout": 2000
            },
            {
              "uuid": "145129cc-6596-4771-a9c5-8fad63246b31",
              "title": "Page Frame",
              "fullFile": "",
              "file": "",
              "beforeHooks": [],
              "afterHooks": [],
              "tests": [
                {
                  "title": "has nav container with theme name",
                  "fullTitle": "Core website with standard marketing/sales pages Page Frame has nav container with theme name",
                  "timedOut": null,
                  "duration": 898,
                  "state": "passed",
                  "speed": "slow",
                  "pass": true,
                  "fail": false,
                  "pending": false,
                  "context": null,
                  "code": "cy.get('*[data-t=\"nav-outer\"]').as('nav-outer');\ncy.get('@nav-outer').get('.navbar-brand')\n    .should('have.text', 'Kowabunga Theme');",
                  "err": {},
                  "uuid": "483c0b39-7183-43a6-a75a-4dd207e7a231",
                  "parentUUID": "145129cc-6596-4771-a9c5-8fad63246b31",
                  "isHook": false,
                  "skipped": false
                },
                {
                  "title": "has tomato text",
                  "fullTitle": "Core website with standard marketing/sales pages Page Frame has tomato text",
                  "timedOut": null,
                  "duration": 777,
                  "state": "passed",
                  "speed": "slow",
                  "pass": true,
                  "fail": false,
                  "pending": false,
                  "context": null,
                  "code": "cy.get('p.lead')\n    .should('have.css', 'color', 'rgb(255, 99, 71)');",
                  "err": {},
                  "uuid": "acc6d149-5fd4-477c-b5e4-7afcd101e7cd",
                  "parentUUID": "145129cc-6596-4771-a9c5-8fad63246b31",
                  "isHook": false,
                  "skipped": false
                },
                {
                  "title": "has id'd header and footer",
                  "fullTitle": "Core website with standard marketing/sales pages Page Frame has id'd header and footer",
                  "timedOut": null,
                  "duration": 939,
                  "state": "passed",
                  "speed": "slow",
                  "pass": true,
                  "fail": false,
                  "pending": false,
                  "context": null,
                  "code": "cy.get('header')\n    .should('have.id', 'layout-header')\n    .and('have.css', 'background-color', 'rgba(0, 0, 0, 0)');\ncy.get('footer')\n    .should('have.id', 'layout-footer');",
                  "err": {},
                  "uuid": "b482737a-23c8-4b69-b123-bb131035db6f",
                  "parentUUID": "145129cc-6596-4771-a9c5-8fad63246b31",
                  "isHook": false,
                  "skipped": false
                }
              ],
              "suites": [],
              "passes": [
                "483c0b39-7183-43a6-a75a-4dd207e7a231",
                "acc6d149-5fd4-477c-b5e4-7afcd101e7cd",
                "b482737a-23c8-4b69-b123-bb131035db6f"
              ],
              "failures": [],
              "pending": [],
              "skipped": [],
              "duration": 2614,
              "root": false,
              "rootEmpty": false,
              "_timeout": 2000
            }
          ],
          "passes": [],
          "failures": [],
          "pending": [],
          "skipped": [],
          "duration": 0,
          "root": false,
          "rootEmpty": false,
          "_timeout": 2000
        }
      ],
      "passes": [],
      "failures": [],
      "pending": [],
      "skipped": [],
      "duration": 0,
      "root": true,
      "rootEmpty": true,
      "_timeout": 2000
    }
  ],
  "meta": {
    "mocha": {
      "version": "7.0.1"
    },
    "mochawesome": {
      "options": {
        "quiet": false,
        "reportFilename": "mochawesome",
        "saveHtml": true,
        "saveJson": true,
        "consoleReporter": "spec",
        "useInlineDiffs": false,
        "code": true
      },
      "version": "6.1.1"
    },
    "marge": {
      "options": null,
      "version": "5.1.0"
    }
  }
}